Home · DLWGMMIV.jl
…
    First order derivative at optimal L is approximately zero: true

    Second order derivative at optimal L check: true

=======================

SUMMARY:
        100.0% of observations passed first order conditions.
        100.0% of observations passed second order conditions.

=======================
    
220×18 DataFrame
Row │ time   firm   S           Y           P          TC        omega_i    XI          K         L          C_K       C_L        rent_K   rent_L ⋯
    │ Int64  Int64  Float64     Float64     Float64    Float64   Float64    Float64     Float64   Any        Float64   Float64    Float64  Float6 ⋯
────┼──────────────────────────────────────────────────────────────────────────────────────────────────────────────────────────────────────────────
  1 │     0      1   0.594649    3.60282    -647.634   651.237    0.687066   0.0        650.454   0.808584   650.454   0.783221       1.0  0.9686 ⋯
  2 │     0      2   0.151929    1.02321    -119.13    120.154   -0.12898    0.0        119.931   0.270617   119.931   0.222438       1.0  0.8219  
  3 │     0      3  -0.0790732   0.4036      -89.6328   90.0364  -0.828257   0.0         89.9487  0.120514    89.9487  0.0877392      1.0  0.7280  
 ⋮  │    ⋮      ⋮        ⋮           ⋮           ⋮          ⋮          ⋮          ⋮          ⋮          ⋮         ⋮          ⋮             ⋮        ⋮   ⋱ 
219 │    10     19  -0.26828     0.120173   -188.737   188.857   -1.85054    0.0152269  188.831   0.0420262  188.831   0.0261245      1.0  0.6216  
220 │    10     20  -0.475736    0.0675116   -83.0301   83.0976  -2.21972   -1.24907     83.0829  0.025454    83.0829  0.0146764      1.0  0.5765 ⋯                                                                                                                      
                                                                                                                      5 columns and 215 rows omitted
…
    First order derivative at optimal L is approximately zero: true

    Second order derivative at optimal L check: true

=======================

SUMMARY:
        100.0% of observations passed optimization generating the simulated data.
        100.0% of observations passed first order conditions.
        100.0% of observations passed second order conditions.

=======================

220×24 DataFrame
Row │ time   firm   XI         k          l          m           Y          S          P          TC        omega_i    termination     C_k        ⋯   
    │ Int64  Int64  Float64    Float64    Float64    Float64     Float64    Float64    Float64    Float64   Float64    String          Float64    ⋯
────┼────────────────────────────────────────────────────────────────────────────────────────────────────────────────────────────────────────────── 
  1 │     0      1   0.0       245.378    0.0790147  0.0236492   0.118246   -1.53147   -245.337   245.456   -0.603513  LOCALLY_SOLVED  245.378    ⋯ 
  2 │     0      2   0.0       194.093    1.1433     0.522569    2.61285     0.465793  -193.17    195.782    0.494648  LOCALLY_SOLVED  194.093     
  3 │     0      3   0.0        55.9995   0.0584379  0.0194533   0.0972665  -1.66692    -55.9599   56.0572  -0.663383  LOCALLY_SOLVED   55.9995    
 ⋮  │     ⋮      ⋮        ⋮          ⋮          ⋮          ⋮           ⋮          ⋮            ⋮         ⋮          ⋮             ⋮             ⋮      ⋱ 
219 │    10     19   0.117099  118.572    1.55853    0.783866    3.91933     0.64574   -117.102   121.021    0.72018   LOCALLY_SOLVED  118.572     
220 │    10     20   0.460817    6.10519  0.227785   0.123259    0.616295   -0.741436    -5.7946    6.4109   0.257407  LOCALLY_SOLVED    6.10519  ⋯                                                                                                                     
                                                                                                                     11 columns and 215 rows omitted                                                                                                                      
…
